…
``` r
titanic %>% 
    group_by(Ticket) %>% 
    count()
```

    ## # A tibble: 929 x 2
    ## # Groups:   Ticket [929]
    ##    Ticket     n
    ##    <fct>  <int>
    ##  1 110152     3
    ##  2 110413     3
    ##  3 110465     2
    ##  4 110469     1
    ##  5 110489     1
    ##  6 110564     1
    ##  7 110813     2
    ##  8 111163     1
    ##  9 111240     1
    ## 10 111320     1
    ## # ... with 919 more rows
…
Cabin -&gt; Deck
----------------

EL campo **Cabin** (nombre del camarote) al igual que pasaba con Ticket
no parece muy interesante para los modelos, pero vamos a factorizar.

``` r
titanic$Cabin <- as.factor(titanic$Cabin)
titanic %>% 
    group_by(Cabin) %>% 
    count()
```

    ## # A tibble: 187 x 2
    ## # Groups:   Cabin [187]
    ##    Cabin     n
    ##    <fct> <int>
    ##  1 ""     1014
    ##  2 A10       1
    ##  3 A11       1
    ##  4 A14       1
    ##  5 A16       1
    ##  6 A18       1
    ##  7 A19       1
    ##  8 A20       1
    ##  9 A21       1
    ## 10 A23       1
    ## # ... with 177 more rows
…
